{
	"videoRemoteId":"6YvEDbBjgAY",
	"downloadables":[
		{	
			name : "Initial Project",
			description : "The project you need at the start of the tutorial. All assets have been prepared so you can jump in straight away!",
			type : "UnityPackage",
			payload : "S02E06_Initial.unitypackage"
		},
		{
			name : "Completed Project",
			description : "The project as it should be at the end of the tutorial. Download this for reference or comparison",
			type : "UnityPackage",
			payload : "S02E06_Completed.unitypackage"
		}
	]
}